{
  "ONE": "1",
  "MAX_WEIGHT": "1000000",
  "MIN_PRECISION": "32",
  "MAX_PRECISION": "127",
  "FIXED_1": "0x080000000000000000000000000000000",
  "FIXED_2": "0x100000000000000000000000000000000",
  "MAX_NUM": "0x200000000000000000000000000000000",
  "LN2_NUMERATOR": "0x3f80fe03f80fe03f80fe03f80fe03f8",
  "LN2_DENOMINATOR": "0x5b9de1d10bf4103d647b0955897ba80",
  "OPT_LOG_MAX_VAL": "0x15bf0a8b1457695355fb8ac404e7a79e3",
  "OPT_EXP_MAX_VAL": "0x800000000000000000000000000000000",
  "LAMBERT_CONV_RADIUS": "0x002f16ac6c59de6f8d5d6f63c1482a7c86",
  "LAMBERT_POS2_SAMPLE": "0x0003060c183060c183060c183060c18306",
  "LAMBERT_POS2_MAXVAL": "0x01af16ac6c59de6f8d5d6f63c1482a7c80",
  "LAMBERT_POS3_MAXVAL": "0x6b22d43e72c326539cceeef8bb48f255ff",
  "MAX_UNF_WEIGHT": "0x10c6f7a0b5ed8d36b4c7f34938583621fafc8b0079a2834d26fa3fcc9ea9"
}
